<?xml version="1.0" encoding="utf-8"?>
<!-- Generator: Adobe Illustrator 23.0.2, SVG Export Plug-In . SVG Version: 6.00 Build 0)  -->
<svg version="1.1" id="Capa_1" xmlns="http://www.w3.org/2000/svg" xmlns:xlink="http://www.w3.org/1999/xlink" x="0px" y="0px"
	 viewBox="0 0 571.2 571.2" style="enable-background:new 0 0 571.2 571.2;" xml:space="preserve">
<style type="text/css">
	.st0{fill:#3AAFA9;}
</style>
<g>
	<path class="st0" d="M353.6,496.4c0,7.5-6.1,13.6-13.6,13.6H231.2c-7.5,0-13.6-6.1-13.6-13.6c0-7.5,6.1-13.6,13.6-13.6H340
		C347.5,482.8,353.6,488.9,353.6,496.4z M340,516.8H231.2c-8.9,0-15.9,8.6-12.9,18c1.8,5.7,7.5,9.2,13.5,9.2h0.2
		c7.9,0,15,4.4,18.6,11.5l0.1,0.3c4.7,9.5,14.4,15.4,25,15.4h19.9c10.6,0,20.3-6,25-15.4l0.1-0.3c3.5-7,10.7-11.5,18.5-11.5h0.2
		c5.9,0,11.7-3.5,13.5-9.2C355.9,525.4,348.9,516.8,340,516.8z M285.6,81.6c7.5,0,13.6-6.1,13.6-13.6V13.6c0-7.5-6.1-13.6-13.6-13.6
		C278.1,0,272,6.1,272,13.6V68C272,75.5,278.1,81.6,285.6,81.6z M141.4,133.4c2.7,2.7,6.1,4,9.6,4c3.5,0,7-1.3,9.6-4
		c5.3-5.3,5.3-13.9,0-19.2l-38.5-38.5c-5.3-5.3-13.9-5.3-19.2,0c-5.3,5.3-5.3,13.9,0,19.2L141.4,133.4z M108.8,258.4
		c0-7.5-6.1-13.6-13.6-13.6H40.8c-7.5,0-13.6,6.1-13.6,13.6c0,7.5,6.1,13.6,13.6,13.6h54.4C102.7,272,108.8,265.9,108.8,258.4z
		 M141.4,383.4l-38.5,38.5c-5.3,5.3-5.3,13.9,0,19.2c2.7,2.7,6.1,4,9.6,4c3.5,0,7-1.3,9.6-4l38.5-38.5c5.3-5.3,5.3-13.9,0-19.2
		C155.3,378.1,146.7,378.1,141.4,383.4z M429.8,383.4c-5.3-5.3-13.9-5.3-19.2,0s-5.3,13.9,0,19.2l38.5,38.5c2.7,2.7,6.1,4,9.6,4
		s7-1.3,9.6-4c5.3-5.3,5.3-13.9,0-19.2L429.8,383.4z M530.4,244.8H476c-7.5,0-13.6,6.1-13.6,13.6S468.5,272,476,272h54.4
		c7.5,0,13.6-6.1,13.6-13.6C544,250.9,537.9,244.8,530.4,244.8z M420.2,137.4c3.5,0,7-1.3,9.6-4l38.5-38.5c5.3-5.3,5.3-13.9,0-19.2
		s-13.9-5.3-19.2,0l-38.5,38.5c-5.3,5.3-5.3,13.9,0,19.2C413.3,136,416.8,137.4,420.2,137.4z M353.6,462.4c0,7.5-6.1,13.6-13.6,13.6
		H231.2c-7.5,0-13.6-6.1-13.6-13.6c0-7.2,5.7-13.1,12.8-13.5c-8.5-76.5-87.6-93.6-87.6-183.7c0-78.9,63.9-142.8,142.8-142.8
		s142.8,63.9,142.8,142.8c0,90.1-79.2,107.2-87.6,183.7C347.9,449.3,353.6,455.2,353.6,462.4z M254.3,160.5
		c-2.1-5.2-8.1-7.7-13.3-5.6c-34.8,14.1-61.1,44.2-70.5,80.5c-1.4,5.5,1.9,11,7.3,12.4c0.9,0.2,1.7,0.3,2.6,0.3
		c4.5,0,8.7-3.1,9.9-7.6c7.8-30.1,29.6-55.1,58.4-66.7C253.9,171.7,256.4,165.8,254.3,160.5z"/>
</g>
</svg>
