<?xml version="1.0" encoding="utf-8"?>
<!-- Generator: Adobe Illustrator 23.0.2, SVG Export Plug-In . SVG Version: 6.00 Build 0)  -->
<svg version="1.1" id="Layer_2" xmlns="http://www.w3.org/2000/svg" xmlns:xlink="http://www.w3.org/1999/xlink" x="0px" y="0px"
	 viewBox="0 0 500 500" style="enable-background:new 0 0 500 500;" xml:space="preserve">
<style type="text/css">
	.st0{fill:none;stroke:#3AAFA9;stroke-width:3;}
	.st1{fill:none;stroke:#3AAFA9;stroke-width:6;}
	.st2{fill:#3AAFA9;}
	.st3{font-family:'MyriadPro-Regular';}
	.st4{font-size:31.4817px;}
</style>
<line class="st0" x1="217.2" y1="100" x2="437.2" y2="100"/>
<line class="st0" x1="376.1" y1="162.9" x2="376.1" y2="400"/>
<line class="st0" x1="260.7" y1="317.5" x2="376.1" y2="400"/>
<line class="st0" x1="145.4" y1="296.7" x2="145.4" y2="400"/>
<line class="st0" x1="260.7" y1="317.5" x2="145.4" y2="400"/>
<path class="st0" d="M376.1,162.9c0-24.2,27.4-43.8,61.2-43.8"/>
<path class="st0" d="M450,107.4c0-4.1-6.7-7.4-15-7.4"/>
<path class="st0" d="M450,107.4c0,6.5-6.1,11.7-13.6,11.7"/>
<path class="st0" d="M147,162.9c0-34.8,33.2-62.9,74.2-62.9"/>
<line class="st0" x1="144.4" y1="298.1" x2="219.9" y2="298.1"/>
<path class="st0" d="M253.6,216.8c0-29.8-48.1-53.8-107.6-53.8"/>
<path class="st0" d="M259.3,249.9c0-19.6-2.6-35.4-5.8-35.4"/>
<path class="st0" d="M259.3,249.9c0,26.7-17.6,48.2-39.4,48.2"/>
<line class="st1" x1="74.9" y1="285" x2="85.1" y2="329"/>
<line class="st1" x1="50" y1="265.8" x2="74.9" y2="285"/>
<line class="st1" x1="133.4" y1="285.3" x2="85.1" y2="329"/>
<path class="st1" d="M74.9,285"/>
<line class="st1" x1="56.4" y1="230.7" x2="50" y2="265.8"/>
<path class="st1" d="M56.4,230.7"/>
<path class="st1" d="M18,275.8"/>
<line class="st1" x1="73.2" y1="212.5" x2="56.4" y2="230.7"/>
<path class="st1" d="M73.2,212.5"/>
<path class="st1" d="M97.3,229.2"/>
<path class="st1" d="M97.3,229.2"/>
<path class="st1" d="M97.3,229.2"/>
<path class="st1" d="M133.4,285.3"/>
<path class="st1" d="M133.4,285.3"/>
<path class="st1" d="M84.8,327.8"/>
<line class="st1" x1="94.4" y1="209.6" x2="73.2" y2="212.5"/>
<path class="st1" d="M94.4,209.6"/>
<path class="st1" d="M97.3,229.2"/>
<path class="st1" d="M94.4,209.6"/>
<path class="st1" d="M97.3,229.2"/>
<line class="st1" x1="102.7" y1="191.3" x2="94.4" y2="209.6"/>
<path class="st1" d="M102.7,191.3"/>
<path class="st1" d="M133.4,285.3"/>
<line class="st1" x1="221.1" y1="287.4" x2="133.4" y2="285.3"/>
<path class="st1" d="M221.1,287.4"/>
<path class="st1" d="M133.4,285.3"/>
<path class="st1" d="M133.4,285.3"/>
<path class="st1" d="M154.4,207"/>
<path class="st1" d="M154.4,207"/>
<line class="st1" x1="102.7" y1="191.3" x2="129" y2="173.6"/>
<path class="st1" d="M129,173.6"/>
<path class="st1" d="M154.4,207"/>
<path class="st1" d="M154.4,207"/>
<path class="st1" d="M173.2,174.3"/>
<line class="st1" x1="129" y1="173.6" x2="173.2" y2="174.3"/>
<line class="st1" x1="192.1" y1="188.2" x2="173.2" y2="174.3"/>
<path class="st1" d="M192.1,188.2"/>
<path class="st1" d="M154.4,207"/>
<line class="st1" x1="201" y1="207.9" x2="192.1" y2="188.2"/>
<path class="st1" d="M201,207.9"/>
<path class="st1" d="M201,207.9"/>
<path class="st1" d="M221.1,287.4"/>
<line class="st1" x1="245.4" y1="271.6" x2="221.1" y2="287.4"/>
<path class="st1" d="M245.4,271.6"/>
<line class="st1" x1="201" y1="207.9" x2="218.3" y2="206.3"/>
<path class="st1" d="M218.3,206.3"/>
<line class="st1" x1="243.4" y1="216.5" x2="218.3" y2="206.3"/>
<path class="st1" d="M243.4,216.5"/>
<line class="st1" x1="251.1" y1="250.6" x2="243.4" y2="216.5"/>
<path class="st1" d="M251.1,250.6"/>
<line class="st1" x1="245.4" y1="271.6" x2="251.1" y2="250.6"/>
<path class="st1" d="M79.1,264.3"/>
<path class="st1" d="M96.1,268"/>
<path class="st1" d="M96.1,268"/>
<path class="st1" d="M96.1,268"/>
<path class="st1" d="M96.1,268"/>
<path class="st1" d="M96.1,268"/>
<text transform="matrix(0.9706 0 0 1 82.7656 255.0547)" class="st2 st3 st4">Bookmark</text>
</svg>
