<?xml version="1.0" encoding="utf-8"?>
<!-- Generator: Adobe Illustrator 23.0.2, SVG Export Plug-In . SVG Version: 6.00 Build 0)  -->
<svg version="1.1" id="Layer_1" xmlns="http://www.w3.org/2000/svg" xmlns:xlink="http://www.w3.org/1999/xlink" x="0px" y="0px"
	 viewBox="0 0 593 578" style="enable-background:new 0 0 593 578;" xml:space="preserve">
<style type="text/css">
	.st0{fill:#EF5350;stroke:#EF5350;stroke-miterlimit:10;}
	.st1{fill:#66BB6A;stroke:#66BB6A;stroke-miterlimit:10;}
	.st2{fill:#4FC3F7;stroke:#4FC3F7;stroke-miterlimit:10;}
	.st3{fill:#29B6F6;stroke:#29B6F6;stroke-miterlimit:10;}
</style>
<polygon class="st0" points="116.5,140.7 42.1,226.1 193.4,106.9 "/>
<polygon class="st0" points="432.9,335.3 503,353.2 559.2,317.5 "/>
<polygon class="st0" points="522.8,185.4 438.1,124.8 329.2,99 "/>
<polygon class="st0" points="207.3,256.9 100,298.6 249.6,335.3 "/>
<polygon class="st0" points="249.6,133.7 262.6,267.8 288.5,147.6 "/>
<polygon class="st0" points="346.5,335.3 342.1,214.2 439.8,243 "/>
<polygon class="st0" points="81,420.8 28.3,343.3 106.9,343.3 "/>
<polygon class="st0" points="112.1,226.1 164,166.5 202.9,185.4 "/>
<polygon class="st0" points="118.2,428.7 153.6,444.6 188.2,353.2 "/>
<polygon class="st0" points="268.6,370.1 329.2,398.9 411.3,370.1 "/>
<polygon class="st1" points="149.3,448.6 142.4,525 179.6,529 "/>
<polygon class="st1" points="189.9,455.5 223.7,407.8 155.4,448.6 "/>
<polygon class="st1" points="565.2,309.5 573,269.8 505.6,261.9 "/>
<polygon class="st1" points="522.8,189.4 358.6,201.3 426,145.7 "/>
<polygon class="st1" points="223.7,175.4 214.2,261.9 260,267.8 "/>
<polygon class="st1" points="202.9,103.9 246.2,128.8 324,96 "/>
<polygon class="st1" points="416.5,365.1 428.6,335.3 324,365.1 "/>
<polygon class="st1" points="466.6,325.4 534.1,317.5 432.9,264.8 "/>
<polygon class="st1" points="83.6,420.8 135.5,359.2 112.1,350.2 "/>
<polygon class="st1" points="30,337.3 42.1,317.5 109.5,337.3 "/>
<polygon class="st1" points="42.1,230.1 106.9,226.1 118.2,173.5 "/>
<polygon class="st1" points="168.3,162.5 202.9,181.4 185.6,117.8 "/>
<polygon class="st1" points="126.8,166.5 153.6,142.7 158,166.5 "/>
<polygon class="st1" points="266.9,267.8 281.6,201.3 337.8,226.1 "/>
<polygon class="st1" points="260,365.1 223.7,331.4 193.4,350.2 "/>
<polygon class="st1" points="260,343.3 232.3,296.6 342.1,307.5 "/>
<polygon class="st2" points="358.6,169.5 312.7,185.4 312.7,139.7 "/>
<polygon class="st2" points="202.9,106.9 189.9,117.8 245.3,142.7 "/>
<polygon class="st2" points="37.8,234 18.8,295.6 193.4,256.9 "/>
<polygon class="st2" points="88.8,424.7 112.1,429.7 179.6,353.2 "/>
<polygon class="st2" points="188.2,461.5 153.6,451.5 179.6,521.1 "/>
<polygon class="st2" points="266.9,375.1 227.1,402.9 195.1,353.2 "/>
<polygon class="st2" points="269.5,365.1 256.5,350.2 336.1,317.5 "/>
<polygon class="st2" points="155.4,444.6 198.6,420.8 191.7,353.2 "/>
<polygon class="st2" points="113.9,348.3 137.2,357.2 192.6,348.3 "/>
<polygon class="st2" points="44.7,315.5 148.4,312.5 113.9,335.3 "/>
<polygon class="st2" points="213.3,263.8 229.7,293.6 343,305.5 "/>
<polygon class="st2" points="224.5,173.5 247.9,145.7 260,263.8 "/>
<polygon class="st2" points="121.7,169.5 108.7,226.1 158.8,169.5 "/>
<polygon class="st2" points="158.8,158.6 155.4,139.7 183,117.8 "/>
<polygon class="st2" points="572.1,265.8 525.4,191.3 505.6,257.9 "/>
<polygon class="st2" points="565.2,312.5 536.7,317.5 432.9,261.9 "/>
<polygon class="st2" points="347.3,336.3 426,259.9 465.8,328.4 "/>
<polygon class="st2" points="343,212.2 356.8,203.3 442.4,240 "/>
<polygon class="st2" points="302.4,250.9 343,299.6 341.3,226.1 "/>
<polygon class="st2" points="424.3,143.7 251.3,128.8 324,99 "/>
<polygon class="st2" points="210.7,256.9 183,197.3 221.1,180.4 "/>
<polygon class="st0" points="49.9,231.1 204.6,254.9 195.1,231.1 "/>
<polygon class="st0" points="138.1,359.2 87.1,420.8 175.3,353.2 "/>
<polygon class="st0" points="223.7,402.9 201.2,416.8 193.4,354.2 "/>
<polygon class="st0" points="346.5,338.3 321.4,363.1 428.6,333.4 "/>
<polygon class="st0" points="563.5,309.5 501.2,261.9 430.3,255.9 "/>
<polygon class="st0" points="522.8,191.3 503.8,257.9 362,203.3 "/>
<polygon class="st0" points="423.4,145.7 312.7,135.7 378.5,181.4 "/>
<polygon class="st0" points="259.1,274.8 298.9,250.9 343,303.6 "/>
<polygon class="st0" points="191.7,345.3 151,314.5 109.5,343.3 "/>
<polygon class="st0" points="94.8,298.6 80.1,312.5 18.8,298.6 "/>
<polygon class="st0" points="245.3,145.7 207.3,183.4 189.1,119.8 "/>
<polygon class="st1" points="21.3,301.6 39.5,313.5 73.2,312.5 "/>
<polygon class="st1" points="96.6,299.6 83.6,312.5 144.1,310.5 "/>
<polygon class="st1" points="23.9,296.6 98.3,296.6 196.9,258.9 "/>
<polygon class="st1" points="193.4,344.3 153.6,314.5 198.6,325.4 "/>
<polygon class="st1" points="343,315.5 342.1,316.1 270.4,367.1 317.1,366.1 "/>
<polygon class="st1" points="250.5,131.8 311,153.6 310.1,135.7 "/>
<polygon class="st1" points="113.9,228.1 180.4,198.3 195.1,228.1 "/>
<polygon class="st3" points="200.3,325.4 194.3,347.3 221.9,330.4 "/>
<polygon class="st3" points="226.3,331.4 259.1,347.3 253.9,338.3 "/>
<polygon class="st3" points="343.9,317.5 344.7,336.3 321.4,361.2 "/>
<polygon class="st3" points="337.8,398.9 409.6,374.1 375.9,393.9 "/>
<polygon class="st3" points="110.4,142.7 41.2,221.1 76.7,166.5 "/>
<polygon class="st1" points="118.2,136.7 195.1,102.9 151.9,111.9 "/>
<polygon class="st1" points="270.4,373.1 326.6,399.9 292.9,392 "/>
<polygon class="st1" points="447.6,240 432.9,253.9 492.6,257.9 "/>
<polygon class="st1" points="287.7,198.3 340.4,209.2 353.4,201.3 "/>
<polygon class="st0" points="339.5,224.1 339.5,211.2 285.1,199.3 "/>
<polygon class="st0" points="292.9,195.3 293.5,195.3 357.7,198.3 359.4,171.5 "/>
<polygon class="st0" points="290.3,148.6 311,186.4 311,156.6 "/>
<polygon class="st3" points="279.9,198.3 307.5,186.4 290.3,153.6 "/>
<polygon class="st3" points="359.4,196.3 361.2,171.5 377.6,183.4 "/>
</svg>
