<?xml version="1.0" encoding="utf-8"?>
<!-- Generator: Adobe Illustrator 23.0.2, SVG Export Plug-In . SVG Version: 6.00 Build 0)  -->
<svg version="1.1" id="Layer_1" xmlns="http://www.w3.org/2000/svg" xmlns:xlink="http://www.w3.org/1999/xlink" x="0px" y="0px"
	 viewBox="0 0 250 250" style="enable-background:new 0 0 250 250;" xml:space="preserve">
<style type="text/css">
	.st0{display:none;}
	.st1{fill:none;stroke:#FC4351;stroke-width:8;stroke-miterlimit:10;}
	.st2{fill:#FC4351;stroke:#FC4351;stroke-miterlimit:10;}
	.st3{fill:none;stroke:#FC4351;stroke-width:5;stroke-miterlimit:10;}
</style>
<g class="st0">
	
		<image style="display:inline;overflow:visible;enable-background:new    ;" width="1920" height="1080" xlink:href="55CE8F0D.jpeg"  transform="matrix(1 0 0 1 -961 -451.5)">
	</image>
</g>
<g>
	<line class="st1" x1="31" y1="25.6" x2="128.8" y2="25"/>
	<line class="st1" x1="25" y1="172.4" x2="25" y2="34.7"/>
	<line class="st1" x1="33.4" y1="180.2" x2="105.4" y2="180.2"/>
	<path class="st1" d="M25,172.4c0,4.3,3.8,7.8,8.4,7.8"/>
	<path class="st1" d="M25,34.7c0-8.5,7-9.1,8.4-9.1"/>
	<path class="st1" d="M136.6,34.7c0-5-3.8-9.1-8.4-9.1"/>
	<line class="st1" x1="138.4" y1="113.3" x2="136.6" y2="34.7"/>
	<line class="st1" x1="50.2" y1="51.6" x2="118.6" y2="51.6"/>
	<line class="st1" x1="50.2" y1="77.6" x2="118.6" y2="77.6"/>
	<line class="st1" x1="118.6" y1="51.6" x2="118.6" y2="77.6"/>
	<line class="st1" x1="50.2" y1="46.4" x2="50.2" y2="82.8"/>
	<line class="st1" x1="118.6" y1="51.6" x2="118.6" y2="46.4"/>
	<line class="st1" x1="118.6" y1="77.6" x2="118.6" y2="82.8"/>
	<g>
		<g>
			<path class="st2" d="M50,109.5c4.4,0,8.7,0,13.1,0c0.1,0,0.1-13,0-13c-4.4,0-8.7,0-13.1,0C50,96.5,50,109.5,50,109.5L50,109.5z"
				/>
		</g>
	</g>
	<g>
		<g>
			<path class="st2" d="M74.2,108.8c4.4,0,8.7,0,13.1,0c0.1,0,0.1-13,0-13c-4.4,0-8.7,0-13.1,0C74.2,95.9,74.2,108.8,74.2,108.8
				L74.2,108.8z"/>
		</g>
	</g>
	<g>
		<g>
			<path class="st2" d="M50.2,135.8c3.9,0,7.9,0,11.8,0c0.1,0,0.1-13,0-13c-3.9,0-7.9,0-11.8,0C50.2,122.8,50.2,135.8,50.2,135.8
				L50.2,135.8z"/>
		</g>
	</g>
	<g>
		<g>
			<path class="st2" d="M74.1,135.8c4.1,0,8.1,0,12.2,0c0.1,0,0.1-13,0-13c-4.1,0-8.1,0-12.2,0C74,122.8,74,135.8,74.1,135.8
				L74.1,135.8z"/>
		</g>
	</g>
	<g>
		<g>
			<path class="st2" d="M50.2,162c4,0,8,0,11.9,0c0.1,0,0.1-13,0-13c-4,0-8,0-11.9,0C50.2,149,50.2,162,50.2,162L50.2,162z"/>
		</g>
	</g>
	<g>
		<g>
			<path class="st2" d="M74.2,161.9c4,0,8,0,12,0c0.1,0,0.1-13,0-13c-4,0-8,0-12,0C74.2,148.9,74.2,161.9,74.2,161.9L74.2,161.9z"/>
		</g>
	</g>
	<line class="st3" x1="140.2" y1="180.2" x2="98.2" y2="110.1"/>
	<path class="st3" d="M188.8,118.5"/>
	<path class="st3" d="M160,140.6"/>
	<path class="st3" d="M151.6,126.3"/>
	<path class="st3" d="M180.4,138"/>
	<path class="st3" d="M172,123.7"/>
	<path class="st3" d="M100,99"/>
	<path class="st3" d="M98.8,110.7c-2.7-3.6-2.1-8.8,1.2-11.7c3.2-2.8,8.1-2.8,11.4,0.1"/>
	<path class="st3" d="M100,99"/>
	<path class="st3" d="M114.4,102.9"/>
	<path class="st3" d="M134.2,133.4"/>
	<path class="st3" d="M176.2,203.6"/>
	<path class="st3" d="M149.2,123.7"/>
	<path class="st3" d="M178,169.2"/>
	<path class="st3" d="M136,122.4"/>
	<path class="st3" d="M134.8,134.1"/>
	<path class="st3" d="M136,122.4"/>
	<path class="st3" d="M136,122.4"/>
	<path class="st3" d="M150.4,126.3"/>
	<path class="st3" d="M155.8,130.8"/>
	<path class="st3" d="M197.8,201"/>
	<path class="st3" d="M170.8,121.1"/>
	<path class="st3" d="M199.6,166.6"/>
	<path class="st3" d="M157.6,119.8"/>
	<path class="st3" d="M156.4,131.5"/>
	<path class="st3" d="M172,123.7"/>
	<path class="st3" d="M177.4,129.5"/>
	<path class="st3" d="M179.2,118.5"/>
	<path class="st3" d="M178,130.2"/>
	<path class="st3" d="M179.2,118.5"/>
	<path class="st3" d="M179.2,118.5"/>
	<path class="st3" d="M193.6,145.4"/>
	<line class="st3" x1="140.7" y1="123.8" x2="159.9" y2="152.4"/>
	<path class="st3" d="M188.8,148.4"/>
	<path class="st3" d="M170.8,121.1"/>
	<path class="st3" d="M107.2,152.3c0-1.4,6.4-2.6,14.4-2.6"/>
	<path class="st3" d="M107.2,152.3c0,40.2,31.7,72.7,70.8,72.7"/>
	<path class="st3" d="M212.8,149.7"/>
	<path class="st3" d="M212.8,152.3"/>
	<path class="st3" d="M224.8,175.6"/>
	<path class="st3" d="M198.4,128.9"/>
</g>
<path class="st3" d="M178,132.8"/>
<path class="st3" d="M189.4,151.6"/>
<path class="st3" d="M171.4,124.4"/>
<line class="st3" x1="155.8" y1="125.5" x2="175" y2="154.1"/>
<path class="st3" d="M130.9,125.3c3.2-2.8,8.1-2.8,11.4,0.1"/>
<path class="st3" d="M145,126c3.2-2.8,8.1-2.8,11.4,0.1"/>
<path class="st3" d="M159,128c3.2-2.8,8.1-2.8,11.4,0.1"/>
<line class="st3" x1="169.8" y1="127.5" x2="189" y2="156.1"/>
<line class="st3" x1="111" y1="98" x2="152.6" y2="162"/>
</svg>
