<?xml version="1.0" encoding="utf-8"?>
<!-- Generator: Adobe Illustrator 23.0.2, SVG Export Plug-In . SVG Version: 6.00 Build 0)  -->
<svg version="1.1" id="Layer_1" xmlns="http://www.w3.org/2000/svg" xmlns:xlink="http://www.w3.org/1999/xlink" x="0px" y="0px"
	 viewBox="0 0 500 500" style="enable-background:new 0 0 500 500;" xml:space="preserve">
<style type="text/css">
	.st0{fill:none;stroke:#000000;stroke-width:18;stroke-miterlimit:10;}
</style>
<path d="M208.5,146.9l-12.5-2c-1.1-2.5-2.4-4.9-4-7.2l6.9-8c1.2-1.4,1-3.3-0.7-4.5l-19.4-14.6c-1.6-1.2-4.1-1.4-6.1-0.5l-10.7,5.2
	c-3.1-1.2-6.4-2.2-9.7-3l-2.7-9.3c-0.5-1.7-2.5-2.9-4.7-2.9h-27.5c-2.3,0-4.3,1.2-4.7,2.9l-2.7,9.3c-3.3,0.8-6.6,1.8-9.7,3L89.5,110
	c-1.9-0.9-4.4-0.7-6.1,0.5l-19.4,14.6c-1.6,1.2-1.9,3.1-0.7,4.5l6.9,8c-1.6,2.3-2.9,4.8-4,7.2l-12.5,2c-2.2,0.4-3.8,1.8-3.8,3.5
	v20.6c0,1.7,1.6,3.2,3.8,3.5l12.5,2c1.1,2.5,2.4,4.9,4,7.2l-6.9,8c-1.2,1.4-1,3.3,0.7,4.5L83.5,211c1.6,1.2,4.1,1.4,6.1,0.5
	l10.7-5.2c3.1,1.2,6.4,2.2,9.7,3l2.7,9.3c0.5,1.7,2.5,2.9,4.7,2.9h27.5c2.3,0,4.3-1.2,4.7-2.9l2.7-9.3c3.3-0.8,6.6-1.8,9.7-3
	l10.7,5.2c1.9,0.9,4.4,0.7,6.1-0.5l19.4-14.6c1.6-1.2,1.9-3.1,0.7-4.5l-6.9-8c1.6-2.3,2.9-4.8,4-7.2l12.5-2c2.2-0.4,3.8-1.8,3.8-3.5
	v-20.6C212.3,148.8,210.7,147.3,208.5,146.9z M160.3,160.8c0,12-13.1,21.8-29.1,21.8s-29.1-9.8-29.1-21.8s13.1-21.8,29.1-21.8
	S160.3,148.8,160.3,160.8z"/>
<path d="M373.4,264.5l-19.1,0.8c-2.9-3.3-6.2-6.4-9.7-9.3l5.6-13.7c1-2.4-0.4-5.1-3.4-6.4L311,220.9c-3-1.3-6.7-0.8-9,1.1
	l-12.7,10.7c-5.1-0.8-10.4-1.2-15.6-1.4l-8.9-12.7c-1.6-2.3-5.1-3.4-8.4-2.7l-39.7,8.3c-3.3,0.7-5.5,3-5.3,5.6l1.1,14.3
	c-4.4,2.2-8.5,4.6-12.4,7.3l-18.3-4.2c-3.3-0.8-6.8,0.3-8.5,2.5L153,276.5c-1.7,2.2-1.1,5,1.5,6.7l14.3,9.5c-1,3.9-1.7,7.8-1.9,11.7
	l-16.9,6.7c-3,1.2-4.5,3.8-3.6,6.3l11.1,29.7c0.9,2.5,4,4.1,7.4,4l19.1-0.8c2.9,3.3,6.2,6.4,9.7,9.3l-5.6,13.7
	c-1,2.4,0.4,5.1,3.4,6.4l35.9,15.2c3,1.3,6.7,0.8,9-1.1l12.7-10.7c5.1,0.8,10.4,1.2,15.6,1.4l8.9,12.7c1.6,2.3,5.1,3.4,8.4,2.7
	l39.7-8.3c3.3-0.7,5.5-3,5.3-5.6l-1.1-14.3c4.4-2.2,8.5-4.6,12.4-7.3l18.3,4.2c3.3,0.8,6.8-0.3,8.5-2.5l20.2-26.9
	c1.7-2.2,1.1-5-1.5-6.7l-14.3-9.5c1-3.9,1.7-7.8,1.9-11.7l16.9-6.7c3-1.2,4.5-3.8,3.6-6.3l-11.1-29.7
	C380,266,376.9,264.4,373.4,264.5z M311.2,299.1c6.5,17.4-7.1,35.4-30.3,40.3c-23.2,4.8-47.3-5.3-53.8-22.7
	c-6.5-17.4,7.1-35.4,30.3-40.3C280.6,271.5,304.7,281.7,311.2,299.1z"/>
<path d="M448.2,187.3l-8.4-3.9c0.1-2-0.1-4.1-0.4-6.1l7.8-4.5c1.4-0.8,1.9-2.2,1.1-3.4l-9.1-14.4c-0.8-1.2-2.5-1.8-4.2-1.5l-9.6,1.7
	c-1.9-1.5-3.9-2.8-6-4.1l1.3-7.3c0.2-1.3-0.8-2.6-2.5-3l-20-5.4c-1.7-0.4-3.5,0-4.4,1.2l-5.2,6.3c-2.7-0.1-5.4,0-8.1,0.3l-6-5.9
	c-1.1-1-3-1.4-4.6-0.8l-19.2,6.8c-1.6,0.6-2.5,1.9-2.1,3.2l2.2,7.2c-2,1.4-3.8,2.9-5.5,4.5l-9.8-1c-1.7-0.2-3.4,0.6-4,1.8l-7.2,15
	c-0.6,1.2,0,2.6,1.5,3.3l8.4,3.9c-0.1,2,0.1,4.1,0.4,6.1l-7.8,4.5c-1.4,0.8-1.9,2.2-1.1,3.4l9.1,14.4c0.8,1.2,2.5,1.8,4.2,1.5
	l9.6-1.7c1.9,1.5,3.9,2.8,6,4.1l-1.3,7.3c-0.2,1.3,0.8,2.6,2.5,3l20,5.4c1.7,0.4,3.5,0,4.4-1.2l5.2-6.3c2.7,0.1,5.4,0,8.1-0.3l6,5.9
	c1.1,1,3,1.4,4.6,0.8l19.2-6.8c1.6-0.6,2.5-1.9,2.1-3.2l-2.2-7.2c2-1.4,3.8-2.9,5.5-4.5l9.8,1c1.7,0.2,3.4-0.6,4-1.8l7.2-15
	C450.4,189.4,449.7,188,448.2,187.3z M408.3,187.9c-4.2,8.7-17.1,13.3-28.8,10.2c-11.7-3.1-17.8-12.8-13.6-21.6s17.1-13.3,28.8-10.2
	C406.4,169.5,412.5,179.2,408.3,187.9z"/>
<line class="st0" x1="153.9" y1="198.9" x2="219.9" y2="265.3"/>
<line class="st0" x1="358.4" y1="203.7" x2="313" y2="250.7"/>
</svg>
